StationID           Latitude    NSTD  BYear EYear  PRCPNN 
023090              -34.92        4   1961  1990     25 
009741              -34.94        4   1961  1990     25 
015590              -23.80        4   1961  1990     25 
040004              -27.63        4   1961  1990     25 
036007              -23.55        4   1961  1990     25 
063005              -33.43        4   1961  1990     25 
038002              -25.90        4   1961  1990     25 
038003              -22.91        4   1961  1990     25 
048013              -30.09        4   1961  1990     25 
040223              -27.42        4   1961  1990     25 
003003              -17.95        4   1961  1990     25 
039128              -24.91        4   1961  1990     25 
029004              -17.74        4   1961  1990     25 
096003              -42.28        4   1961  1990     25 
072091              -35.94        4   1961  1990     25 
031011              -16.87        4   1961  1990     25 
037010              -19.92        4   1961  1990     25 
070014              -35.30        4   1961  1990     25 
022801              -35.75        4   1961  1990     25 
094010              -43.49        4   1961  1990     25 
009518              -34.37        4   1961  1990     25 
090015              -38.86        4   1961  1990     25 
006011              -24.88        4   1961  1990     25 
018012              -32.13        4   1961  1990     25 
044021              -26.41        4   1961  1990     25 
034084              -20.04        4   1961  1990     25 
048027              -31.49        4   1961  1990     25 
059040              -30.31        4   1961  1990     25 
010035              -31.66        4   1961  1990     25 
008039              -30.28        4   1961  1990     25 
014015              -12.42        4   1961  1990     25 
074128              -35.55        4   1961  1990     25 
065012              -32.21        4   1961  1990     25 
092045              -40.99        4   1961  1990     25 
009789              -33.83        4   1961  1990     25 
011052              -30.84        4   1961  1990     25 
084016              -37.57        4   1961  1990     25 
039039              -25.63        4   1961  1990     25 
008051              -28.80        4   1961  1990     25 
013017              -25.04        4   1961  1990     25 
094069              -42.99        4   1961  1990     25 
055024              -31.03        4   1961  1990     25 
002012              -18.23        4   1961  1990     25 
094029              -42.89        4   1961  1990     25 
056017              -29.78        4   1961  1990     25 
068034              -35.09        4   1961  1990     25 
012038              -30.79        4   1961  1990     25 
001021              -14.30        4   1961  1990     25 
080023              -35.73        4   1961  1990     25 
091104              -41.54        4   1961  1990     25 
087031              -37.86        4   1961  1990     25 
005007              -22.24        4   1961  1990     25 
036031              -23.44        4   1961  1990     25 
091057              -41.06        4   1961  1990     25 
033119              -21.12        4   1961  1990     25 
017031              -29.65        4   1961  1990     25 
007045              -26.61        4   1961  1990     25 
086071              -37.81        4   1961  1990     25 
076031              -34.23        4   1961  1990     25 
042023              -26.66        4   1961  1990     25 
053048              -29.48        4   1961  1990     25 
069018              -35.91        4   1961  1990     25 
026021              -37.75        4   1961  1990     25 
078031              -36.34        4   1961  1990     25 
068076              -34.94        4   1961  1990     25 
023321              -34.48        4   1961  1990     25 
017114              -27.54        4   1961  1990     25 
084030              -37.69        4   1961  1990     25 
028004              -16.00        4   1961  1990     25 
009021              -31.93        4   1961  1990     25 
004032              -20.37        4   1961  1990     25 
018070              -34.72        4   1961  1990     25 
060026              -31.44        4   1961  1990     25 
015548              -20.19        4   1961  1990     25 
067105              -33.60        4   1961  1990     25 
030045              -20.73        4   1961  1990     25 
026026              -37.16        4   1961  1990     25 
039083              -23.38        4   1961  1990     25 
082039              -36.11        4   1961  1990     25 
085072              -38.11        4   1961  1990     25 
061089              -32.06        4   1961  1990     25 
021046              -33.78        4   1961  1990     25 
043034              -28.04        4   1961  1990     25 
066062              -33.86        4   1961  1990     25 
016044              -30.71        4   1961  1990     25 
015135              -19.64        4   1961  1990     25 
040264              -26.39        4   1961  1990     25 
045017              -28.00        4   1961  1990     25 
027022              -10.59        4   1961  1990     25 
046037              -29.44        4   1961  1990     25 
032040              -19.25        4   1961  1990     25 
014825              -16.40        4   1961  1990     25 
072150              -35.16        4   1961  1990     25 
052088              -30.04        4   1961  1990     25 
010648              -32.68        4   1961  1990     25 
027045              -12.68        4   1961  1990     25 
046043              -31.56        4   1961  1990     25 
061078              -32.79        4   1961  1990     25 
085096              -39.13        4   1961  1990     25 
005026              -22.24        4   1961  1990     25 
016001              -31.16        4   1961  1990     25 
073054              -33.93        4   1961  1990     25 
058012              -29.43        4   1961  1990     25 
